
		       Tally Sheet for the votes cast. 
 
   The format is:
       "V: vote 		HMAC_SHA256_HEX"
 You may locate the HMAC_SHA256_HEX corresponding to a debian login ID,
 given the associated secret token returned with the ack,
 by running the sha256 hmac function. For example, for login ID srivasta, and
 the secret token 0123456789ABCDE, the following invocation works:
   % echo -n "srivasta" | openssl dgst -hmac 0123456789ABCDE -sha256
 The vote block represents the ranking given to each of the 
 candidates by the voter. 
 -=-=-=-=-=-=-=-=-=-=-=-=-=-=-=-=-=-=-=-=-=-=-=-=-=-=-=-=-=-=-=-=-=-=
 -=-=-=-=-=-=-=-=-=-=-=-=-=-=-=-=-=-=-=-=-=-=-=-=-=-=-=-=-=-=-=-=-=-=

     Option 1-------->: Only one installer, including non-free firmware
   /  Option 2------->: Recommend installer containing non-free firmware
   |/  Option 3------>: Allow presenting non-free installers alongside the free one
   ||/  Option 4----->: Installer with non-free software is not part of Debian
   |||/  Option 5---->: Change SC for non-free firmware in installer, one installer
   ||||/  Option 6--->: Change SC for non-free firmware in installer, keep both installers
   |||||/  Option 7-->: None of the above
   ||||||/
V: 3456127 		01a784cb8d82deb39f2210960bf1bc802341a226f68262f51b0f4c46eb7fabdf
V: 4357216 		01f646f4f0a3079c9d36475ee589fecfd507ac1c27dd61488529c86bf184f5c1
V: 1444243 		01f9a0c363597dde5e9cf657af3c9a002b107c6dc4a66bf3be1c7dc93ca1d8ab
V: 4216537 		020206709181846c3e449f867c2b1fb57285436bbd7f0f655439f4265bd2cb2a
V: 2457136 		0282e97965e303194ae2087cec14ccafdc604d28dfe3869f62b50f37730dddf7
V: 7564213 		0289dc2504745e1e722d6c42922d214a611133aa695d5d6ba05255b8abc51aef
V: 4127536 		02aef2cbd4ff10bf2b9c204b8eeaa21196f6c766aae3c30bc6739baf64f7e834
V: 4357216 		02fbba0bff95edc6d75eb49331db8774606527c3fa9be352c1a7b2444be1de08
V: 1113224 		0491191e2bf24982bb237174e809678da2dfafc4b705e950e56b439b21d8e238
V: 3457126 		04a144513bf614aa92888bb2acd73c8ad0b4d50badfbbccb185d99c6689ff693
V: 4336215 		0554f4a943daf995f596722037b47f9564b6e1c4ae997cfb899ca5a55496004e
V: 3215554 		05cdfe72fcb8536eb738f653d59ffd99df6843c957cce03418c2c35c1c3fe723
V: 31-7327 		07fca919cab3862c2d6e391285d1efcc3f8ccd4711092eb2d8c2153d8a2593e7
V: 4351762 		085d45b3db8a0c0880ee1dc27c08b27b8ebd3a19f2f12479fd6db3bb4754a797
V: 1124123 		0930121f5669a53a088a4f3186097211b6473cfeef9ca41e525a19d30f342540
V: 5436127 		0930b4bed51d538586e9391aa920f7b330d36a3fa5e3f87bbb905aa25c3a9dc6
V: 5346217 		094ce29fd70d00ac3694ec04d38901240484c5f4a1c849861a2977457d75c4a3
V: 345612- 		09700478f26138b26e04ef4e52302a99a4b058654adcd6c7fd592c55c5c88c89
V: ----1-- 		097030534fee073762362e97417a97d5d49943bdaf9166d2a02b0c42a9073972
V: 5326417 		0a6fff6d1953bd81f5613b2905c3694220b0d4ae42b56b77c0bf57288669d627
V: 3125746 		0c48c54f9cdcfc2b6901f59a6ee407618ce3d68d7812dcaf50cbe07afb6e4045
V: 2457136 		0cb5f0241492d9f9a0927abafa570e977d4bfc3f30c8ae0e5620628573a25d1d
V: --3-12- 		0f09968f18602f5ed0144e098a9d89b172357c2f90ce6d856a2a20fb6e4835aa
V: 543-12- 		0fa3afa8ed28ffe5f946bee870b4ce662c7936fb6cc13d53625e5ea1a16bbab4
V: 133524- 		10e3172502ac591fffa32babc88c6d8344e21901c8240db7487c57bb60633ebc
V: -----1- 		113c64462df7c8ebd7f2028fcc54567d28de8b8e0c1976e89d2fc819e4305898
V: 1367245 		11be40863f66d0bb7c1350203c2a578ef39e3e798b0baaa8a8e1df9302fe2ae8
V: --2--13 		124ed59e9b140cf39763066d0d6c1a8b5e4851acb1f2f612df93a2ea4a39604d
V: 7-1-7-7 		127361777b1a41a74b36c2e22cbf53d9c9c00bf7e681c3fc255a217797222b81
V: 4213567 		12898be1bc083fa7a8c7188e672dc53fbd1f923fef0b66732eb6f05b6739cb72
V: 3457126 		14566222294fbed1cb1dbcb0cfef10e203139fe484556bf912a96718c3554d36
V: 6514327 		148a77b1448388722eeb52e96c1e22062b3907e9faa275ca3289c35817b437f4
V: 6537124 		1528237fec237ef95e6e1c8f52726b8060639d3d038fdaf8b1e0008f93ce730f
V: 5236417 		162ea3ee1dfa1a5432741c0f35fe3a3e00c3d6bc516e859fbdb4d696aa44387e
V: 4531762 		1639ff01b11c194faad8348c6eedc99fe6773cc67407c06efc008d41f9a6b3d9
V: --32-14 		16535f78288aefcf61c9d3ebe1e27f075aab423b373b681338613e0ab5f6f695
V: 3457126 		167c3aac3a8955e446ee9b405f653ee618ffb853991d7cb4edc8b049ba0f5c49
V: 4225413 		1baa88409747d7ad082ab6c15e0e8cf2434186b05bb0e9553f53bca8165373bf
V: 2457136 		1bd6bddf1d4fcf3426eacadc103a8f487e63efa3b2d7a56ed8718a2e4466ac5a
V: 1347235 		1d5b55c6947598425a52b2682279fbb3f8e2fe1396ee7391f7b0c806f1d2a679
V: 4357126 		1d63fa992b5db4f987a4ba4465c6066afd31daff32023c3cc0e9df0471e29d7f
V: 5321554 		1e0750348340c5c4a49c7b4f9b52b4c6da0a92933eb0ed38715d62c4e00c7498
V: -123--4 		1e26cb8c108f23419cfbbcf7b5c941a1ce2b6159511bad2fd94b9ed87f5555d2
V: 7721773 		1e61a8559ca74e6b38203548ce45c5f74db59b93df8043a894baa36c5d3b1208
V: 4357216 		1f1a04517a34e9ff79c17652076d5ffdc2b05e6b3f097f2d286c1b52d66b62ba
V: 4356217 		1f7c17aa260068913f91a072e1ac38296083be6644a14cd08709f4cd75660874
V: 7235416 		1fe6cdcf357beb00089d3e92991b2129ea2fec6ec59f616d55e31b2cd61f69d5
V: 5211534 		201f592ecf990a1e63085d7a2a480f4584512294305422465da991038914802d
V: 7321777 		20ac69e02122fe7f4c79e2835c6f0a531167534c4319df9eba3f60da624399b3
V: 4357216 		229dd95b8847ddc249da5887c8d53b3a19e33375c0f1083a777f3124d08d9184
V: 2457136 		22b3cc397b2cd946828fc5d8896f9d5d83e313617dc786ce971a4d0b57fa2ae5
V: 4526317 		238d993c24515d697848e5271239c4dadaa186c62d60120056a6e226463165b6
V: 6123457 		24e8ae9455e275c82b092a264c6fbd26c13258ebc3bc863371b6b18012c15b22
V: 6347125 		25fa13c9f3a3dd472c3139c189258e7a2fe97ca76b0c772ca914ac1e94e8ad61
V: 3457126 		2636861c634b5ca0731af9b917636fd57bae089a90f111f44ea20411583762e0
V: 1356247 		2721274773088eb32b5ffece525a544affc88bbf156331c0c5fa3b848ff940b8
V: 1456237 		274d60239c4fead8bde42973e2dcd2cf3a56476ba9e2b51d64c25b38a94e7bf8
V: 6312745 		281d45b62cd5a4e518dade51977207c5bb508b0a257581948f6c18d3d4d43d73
V: 135-24- 		289943648c932a94d41c9f469b8702da62fa8409ca055ef42b1b31a7b899f0b8
V: 1457236 		2987d9a18ed9712008da9614c5c42006df37992c236dfb7fe9966e77d46679df
V: -----1- 		2a6a5afcb791830f2471e7db9b89124567fe16232d68920b894881876af07385
V: 653421- 		2bc4a5ebcf05fe8d687ae7aec820e699656a6fc4627671838ecb748a2766e7f5
V: 425-31- 		2e4773ee5df42577c639df7f19cf07f3f0d6a342cfb3b5418fe3554250075a0c
V: 5326417 		2f45148b040bbe65128520a77d627bb711ed13209d808ccb0dfc250ae3761ef7
V: 653421- 		3015759785d8f3bc819e31d6ed07ed5cd6c952b17617939bc8be0ce644e31ec6
V: 2137546 		30b89c14985c10cf906fdfdfb102938f446f2fc52c0ae890962d970a43e1ee0e
V: 1257346 		318e7a90ebf8c2cbfc0679969fb68aaa3dff27614136b85cd0a27bf7eabc7015
V: 3457126 		336b3401a4af46ccc7b9762c7a16106d46880d374f9b311aaf79fa7628ede2db
V: 7531642 		33f0c99c269aa1a3e516cdde9d1c383c0bb22cc776bf3c62e9691045ccbf3274
V: 3456127 		352228eec05e25e00bacb9eb22524002049c5960e4931e550c155eb8e8e405b1
V: --12--3 		35ceed1d620aa5d830a612f251255d4774c099f113214c513e6b8fbf05b9f1b5
V: 4357216 		35d34405d979addf3a9177748c63e8bd1b0abe0357a0f7b318f9e4f2a2ac60fa
V: 3457126 		35f6185914d7c0d9066f9171d41a39241148c7dccd873bb8d679c09f1fee90a8
V: 7721634 		364a03bfd77f00f82e7a7434ae1845f74466d9da5a67fa22f871a0f9770c4f00
V: 4357216 		37e101f704a42f416188b39779abda3b8a17dcf160d1e0afe1a52cf2ba47608c
V: 7715755 		38a70c198d9109639762810cb96b08b66b72d0d4bddf35de313ac89cf1fe2a9d
V: 112-11- 		3915a699a372e6395885441779bdadf1eb3c0b8fa8629523290e555590d80a60
V: 1237456 		39166acb37d1658a06f318171836370f95dd49c62b01ad7ec3ac3f43ce1efb4e
V: 2457136 		396e3a06c10347e0064a3f3917f61f049ae7e6bbe6cd445fd29079389e70a2df
V: 6237415 		3c75d4676cd95ba6eca61d18509c7027feff282b37b046882307a5c8440920ed
V: 2457136 		3cba8b82838b6442f7c3491a63816d85cbdf6c992003174e1192f2cb84be6ff0
V: 3457126 		3cbc32d591f1e232a61b9d04c602785c60a01924348ec831d52179dbd39522f8
V: 1227126 		3d3a0e208f7717c72d90b50d56ea702e481859a9d54b7a1e5cfcf8b6b32ba08e
V: 5237416 		3fdcf4ec7f563303fa98f8cc77937f9e18bfb5a415f1f2fe60d70c5e3ef83ddf
V: 543621- 		4006b5be9ce3052941888579599320c637b8adc16930b468db828722d5d8190b
V: 6341725 		4081d1cf3e80a5b8b8265c2d3ce95f5ded7644351d5e4a6f4bceb6e0352b1c9e
V: 7526316 		413ab42c277a6e9508bf3019002b80f89411a862c2980dac8d6cf0056718a71e
V: 2457136 		416172bb059bcddd54303e580501069b03f38863a60049fedad5c4532c4c1813
V: 2457136 		41e65df8a26dafad09f24e645599303b4c502c064b70f6ae99de00a0c7d092d1
V: 3457126 		41f5a86db09b7bb6c413abcf794b690c37f36bead8d324c4e6795cfa8723dbc6
V: 523641- 		429e36f09022452a91c1604c4349cd03bb44eaa3573c585cf4df3acbe1aa73e4
V: 2467135 		42e1e77af607f69dedfa33404d1b104edfdedd7f40d947a6e2163e079563e283
V: 3457126 		432b9c5d39cacf04d22964cfe961f6ec02134d1b53655dfa4a797dc686077b2b
V: 3457126 		43764a479f455874011633be448b23d1875c75446ae56538c3bc5461b2804c37
V: 2457136 		4428a89f7cf201f3efd304457c5cc31b59c0969df03c3dbd38cc9a099b7057df
V: 435621- 		443bffd66627d346f71564cc674536bd4f53d7489aaf07f73151b4b63ec736c0
V: 234-125 		44ad168b6b17ee4d225b98b56d0df75e11fd964c93f38b8ae3bdefc6f48c0d19
V: 1346257 		455230a9ceee3f2a91453839126e38f36053ee6a74e0122245afb94c466ac6b1
V: 1236245 		4642730f25fcfce9da55d89c6ef6991aef290987085b5f4665e0159e5b10294c
V: 5421763 		4704bc7a3aa5185259c4b80f311afd2b4380de4feb578e65be1190c889939f8b
V: 2457136 		471854d44f51dd9496bdc17c1b37fbc1149f49a9b7e8edbac61127245232c318
V: 2135214 		473b6cebab46be6e53670cdcd4b8089f43cc6dab739e34430f3426ff63c78f7e
V: 213---- 		473d86d3a74603e1a03fac546c84450bd203b1f92115b5fbda3658f519be3061
V: ----213 		47ce35123150288e44f0fc95f76ac806951114ead51f2edbcbac23c139e4db93
V: 2476135 		49f5eae1c2813ba5cf1c6c8a74030728109ba7905b32824c1c51357778a7cdb9
V: 2457136 		4abc6703b365bcad48d7b283238841f90da94e24a183e0c63fdb7b055de42557
V: 34--21- 		4ada7131001c614b053e8836ecd7d8481b3b1e402d49ac5fbc181d20294428b2
V: -33-214 		4bdecf6b759ac47929f377639d74b21b4046e4b6317dad5e22a8f84796301ea8
V: 4356127 		4c7b389532aee8fd853a7bccd13b4c6413ecf038ee6f7bfe174fb0f85ed4d9ab
V: --21--3 		4d8e32a9194cf15dd2b14241e423551db96a244d2e4ee62da427219ab54b9a7f
V: 213---- 		4e259bf5f47ed6418490f20b918170ec2908694843ca16ff885ef5fce9ebdb08
V: 4357216 		4e9483230939b166826fe0b60167dd5b87341e03d71262cbfea8b5ef4542c125
V: --21-34 		4eea5fac35fc14cdd9ecace00fd7249a80dc44e49f4526075f17f456f70e46b7
V: 2567143 		4f044dabaf4a7218510ec3f23bcd505ed93b86248e1102d032f59ae13bceda0c
V: 3457126 		53f3d3ad96e76bc87a22a95112ec4e63d962ed3694b5046a9314969b2d42807e
V: 1133112 		55032e74a8781989dfb1a95e0653c50eae24757c59750e74c823020ed12211cd
V: 3457126 		5508c5c268a78450d971646ef7822121e9621edf60cb5817a92a03dbc72ffe42
V: 2457136 		554c7eb642a5ea289a4ede12f9ef5c3fe85e46b2a3c6c7858563a4987be5c3f1
V: 4356217 		55bdc7321c22d86dd2fe2c23275312e1c7c49b1636c9281f638e03d3ce50d883
V: 3456127 		563232d021eeabce0ab187ff7b3575e6d1aeb1cbce91922f89fdda90b68cd88a
V: 3457127 		56d0afe1072f44fac5493aadbf4a9ede442a00a0032d31572d6e3f2e4c700252
V: 3457126 		5756685f7ef3ee220759aa1b48c5567b50a13739fe8788bbd7fa7547e70e25eb
V: 3457126 		58fe1733b4df5e224da952827fc716853f6b51016fb261fa255cd1e5ff06a3c7
V: 7521746 		597a1f83ce04d3811372fcaac90a4cebfb971ac138724d8e5cc6cceacd92a596
V: ----112 		5b3febb2c1a334ebed94a3183c4167e69ee07e40d50c45aeae0362c74cc227da
V: 6132754 		5b62d1c829b921d6a8ecabee3c5e35cacaf030ebd396bcd1ae4969f6954884a4
V: 345612- 		5bd6ca280be92f59386a6cc753d586219fe80dd82c66331ced2777f62bfb9226
V: 2457136 		5c557e89a6bd1245b85b7bc4dc9bd3cd35b23ccd5500cae014302396b1c2d26c
V: 34--125 		5cdb572eefdf843fdf2b9b6975d79dbc1f358d76886f30ddfd32affaedd027ea
V: 2457136 		5db57c5f24407db1090ddc58a145edecbb5499e66d165aa581017f24f15ba4a8
V: 2567143 		5dd4252e91d825f8ded179d7e91cdb06fcdedda3b8d282c895f94e807527be32
V: 5316427 		5fb95616bb61411d3fbf9f86b9c745996680ae5c4e62b7ad82ab002576b96e18
V: 321-456 		5fc1eeb6a92ecd83ac4b26c58de97251ae6c08f4532ab940d0697afb8897d0ec
V: 1234125 		5fe1c7bbf33b7bd09b8a935d41cf0e1b2c0b9b27154cfe55a15e1991a8845948
V: 4256317 		61d1f95056e1752bad677a3aef88d1765d550620c34e48fdb44f4ed202a21d79
V: 5243617 		6249cf2eeea715b037e08039c610a3ad36e4664b80819948eff7bd920f9833a5
V: 7771723 		627e610aeaa1f79702c7e8d5e11c1d530bd25723b9f1fb9ff21719e5c9efc89d
V: 1224123 		6286e201c72dfbc51eb930650456188349dbda2504349bcc607d04b1c7a6a095
V: 6123345 		62fbc0178106c7ea5589aeb6a0e5ec8e98e3111eb5fd7fcc39bab5b8f89a14df
V: 7234615 		634105eb9ec5897e962763e7b2ffbb8ca6748170143cad29b843530206619849
V: 5347216 		63c3f366d7057fe2660d4ab93a5dc96b996cd687be92ac5025dbd182f496b42b
V: -21---3 		64adb21174bd539b469fe90143ff80cb7b3b689b659e4fb9f47fb7eb9e60c1f9
V: 5327416 		64f0231f6d7f0b3f19f6a749ea913bb93d541d1782be932683c827518b71ed2d
V: 1256347 		6557f2f15eb0e987ce5760f64468d4df8cb084e61a0d1b3196c6ff017019c6c0
V: 5436217 		6599d3106ce114ce39c9e7b78de9ca036988fceffd5fd38977d425f3f2c6094d
V: 2124213 		65e041c6a5bc17d6931c5a6a8cbf8cc72108439f2bd6a6577ddc390e1e200ea7
V: 345-126 		65fa740fe9e796f84f851a643b949634e413a7a1d177717ebf14a426bbf9a506
V: 2457136 		660fe87649388da50c7f7cd1cf2616e8e9ac607d98af2446f5fe2e1dbc838358
V: 3214657 		66f158b003338ede1ffa643395608dc96ad6a381839e54ecfd77009d57ff717f
V: 254-13- 		673191c04d77bc05b29c655176d7b3f1a6d257cd0f324a37e4518928691c8ca9
V: 1224123 		68816cf6215564e684b4c3002536fb5309eb9843b86f571e45d5b61c0d1e163a
V: 2457136 		69c196b791c8e522cb28521d349b18102a11f19edb47f7f9f7c1db283f019e5e
V: 6234715 		6a5df4d312461b37d296eb2fd8b5ab06c9524f01bb20438d73020f82eb0c9dfe
V: -23--1- 		6b59948663a1575e07ce96f097e9485d1807aa8ac047871fcdcba0d07b3b1e64
V: 7234516 		6bca021349c464841571c7c75ad6eb7eb5cd9e86a5008a9f941b065c29146617
V: 2457136 		6befec750b99cfd7572ba9d9781cd7bcdd8f2a233423e10bcc8ac2cb06c4bb60
V: 3457126 		6c6d225161aa672e36089cf83065fbb29409e13e1a486f551b40137755d9fc5a
V: 212-34- 		6c76bc74a9051b9a9d0fa7fdc3b9343e4ef33979c1146ff2f0253733035c83b3
V: 7542613 		6c80a4637044e21cd761a36c79a08f49b89ff4b5cda8210a94dfa31cb8de9894
V: 2257116 		6d20a0dea1772c7643235366e90dc9dfa40c27e67d8007c6a6920383d76417d6
V: 1236457 		6d7b22c211c5595a5c3a0f5b987d31c8128a941e6bde3b143c2e83adcc91962e
V: 4321765 		6e35dbd0cdf44b1a29456762323200843c25b02a187f392cf1eb00d6f0b5c745
V: 5437216 		6e9d6a47d4251f44c52eaf02e2ae3ee1de0e1cbe0d62d4d6bc0eed90e4eb396f
V: 4536127 		6fb35aade621424a34f8c5ab3962ba8be4a83aad645dabbac71de1afff8e0025
V: --1---- 		7009ba8a2289d3ca7ad1ece9a1be640ca4461d7c2d9e80432f56fca029636ab5
V: 4321657 		70f830a481f6abbfa7d5020e300fdd4ad343086fdf0eba6b9f4d8a0cc925d0de
V: 3457126 		71d4014746f101b6e4efafb528d197cfadce14f28145ad210240cdedf6855aa3
V: 6237415 		736f106d11420eb48e6fd473190aefc9010b5ce560ab33f1589718f0375f2cb1
V: 2457136 		73a739f3a77da5c5e894ef977cbb8a48e655624f12da35a0f561c6027346deca
V: 3127654 		74eaafe2cb02c0f12196b1daf93036a85ca4c1787830d78a1561f0d5b8351439
V: 4357216 		7623d508717f88368a8bb89d479d8a0151e888ed639221a6e2fa919eb38a518c
V: 6437215 		77dc7c1abf87abd4feebf156b878d693227097558fcd19551ee50b98218a37ce
V: 2347256 		789fcfc52cad8088a53ac352775e4ada9d23c8409aea7a37a33ad3dd2d449de4
V: 3457126 		78a67220bd65409ddc96d85fa2fd574a2c67e5e1b64985590a0878fe03088aed
V: 2135214 		78b36ba8f38da32f11188cb6ea54ac96b2b2f202275238c615ebafb0055b4be9
V: ---1--- 		7954112ee2129dacec8bc707b5430ac82d5b9db317c2b473c4af8fa309893bc4
V: 1235124 		7a0b245b55bb0b7c29cf20b95361705bb59804b4ac63a12d7fac4128242d5088
V: 5237416 		7a55abb24172ff9fcb46fd20e4fd515e126ea91e63af7d327a4de5eff12fed2e
V: 4356127 		7b154d389dcd555e7b08610d91eaf8881ffb82df776919ec1deeac7c484006dd
V: 5347126 		7c54748016ccfb14a1da230b85b6cecc45c5e169bd156b9848574440bfd421fe
V: 5412763 		7cbed78c1abe001e96dee1fc0440f5662e3539e03a077701ee4ee1ae3f3b4f6d
V: 3216457 		7d7b645c67473ffa043d6056c69acd04e0d578b31a03b957f55426acde22b92e
V: 2457136 		7dcf8805c06e05a2b953848b61f7bac48f03c928acf0363ba06b07f69d240c40
V: 4137526 		7e0680b278af96bfe93c9fa4377f58ef7c2c13758f7d90082c5785e2040b98a6
V: 2457136 		7e50528435f96f95d8283b738d66af604991cf26de6c6627757070f353b801be
V: 542153- 		7e8d47c70f7a7673b3e1428d0b9c953ce8430c724e75779f1a8d9d607e1b8dfb
V: 7234615 		7f5c1e075aeaf0c26d9e94c6c2bcfe5ea58e236bf99eea5d8c2a0f255c21cbb4
V: 6312662 		7f7f98f7d1ccdfff7af685f47763dffeedc11882161e8af7a0c9d83d5ae1cff2
V: 245-13- 		7fa9a81e1f2e9a7f5b27ceb1d17a360b5350e2263dbc158c6e3d35e07995a622
V: ---1--- 		803baccdcb6f5afb333224fa85fdac74c95e69a42eac86253fa9e3126303af34
V: 2456137 		8055e213b45b857a1b5fae95bf3a09cbf1675092213df4f0ddd4e46e412cc9fb
V: 3345112 		80d15651cb2301a956a53025eb3643ad8dd56ddd01d41bf1cfa2f9e7a36d34ac
V: 344-12- 		811237248607b62ff8ae69b3a4785f596613e3e6919e53e6923721c14ee09e90
V: 3457126 		8290fa4f9c4ed7e6fcd3c4b4e07c1572b7843e07972794e5b2a84a9b6b3d94c4
V: 5237416 		829ce6ab41a802f89cdebec8d0646813c2d67489ca7e0f7e105cd08885f10ca6
V: 3126457 		8324a45c4b8bb83ee2be0d823429d6f730e3ba40b9e121889224ab5c8dac79f0
V: 127-117 		837845240b34c97c86bf51f4da6e8653ebe7e8f69bd2dcef0aa2cb05df88eb55
V: 7641325 		837dfd7c62313838f3a90a87fb2cf92f20de66528aa1d3df5f6806b2864c9a06
V: 5347216 		838d476a76ef6fe9c348b156c11a84add7b3759c151370367133b6a2ecaa358e
V: -23-415 		85cd8e325ae3b9298c9d8e38fb2fada3ed51fc0cb03a3e487c7d4c5b3add9e68
V: 6237415 		861519d5a0bf5e682f1335640267f6ac2c69a46209e00a3858924e752730bf99
V: 7614523 		86772c8d05572114f8a3c18e8ddd3c47131a03416d3901485af75e9120898a98
V: 3457126 		8787f55d66f058a7d4a1384b745473b307b28a78794e38414b10c42ea8f4ae22
V: 4563127 		884051111b63e38c02d4f8372065f9161a2726f22ad521d0c394b235055778cf
V: 2347156 		8873e6e927c019e3f636ddf43b5849a69ada9b47f86ea81ed93ea5d912758221
V: 435-21- 		894c6e9c83e44afe5d8ff5feeac202fc8969adb1d7ec8b404da5bc80e53aa33f
V: 433-215 		89c9acbacc4fb5a2566f37c2451c4bd6472fc0da956cc22cc4fb2afbc32c697d
V: 4356217 		8a42b036a6a464fc8eb668a9d14d8bbfb16fe2fa58899f2bee5da004c8acd9ce
V: 2547136 		8a590cceabdc86239c6d2771c2a7b42b68ce8c17c9102e6c20b3004294d25f83
V: 4357216 		8a824b69f13462a5aef5e23b400559c8474c204ca78e43a79cb400fc4d9a6986
V: 4567123 		8b256c9ac2a3301339203b897e7d9a44948c0202fe1f06f845907aa484f7dcc1
V: 1225--- 		8b2860d18ddf1bfaae569e2c880d297aa02766b949bf6708605bdc39e6381d53
V: 5431762 		8bed3556945fabda8c859802494807ae8a1ac651e018d38c3ed72107c8fe32ad
V: 6327415 		8c0cba40c8454f8671556d4e4cdcd49408bd77fa978368d369b7e486a219e0ff
V: 2---1-3 		8c592c1b7af2f02acd61a3e6b806f5be9055cc1e0cc761dbf632761847827fd5
V: 6742315 		8da6eccbc705fe679d323acc3c62557e712123fd8af59a0eac4abd093405cd75
V: --12--3 		8ec9ad54b4dd11f7a243c71a06480d4f47f704bd4e8dbce4f21c8adfd43fa572
V: 7651324 		8f6ee41dd4e4899a425e8688703d0a1d2f3790b5462560687f40ff7729788919
V: 1356247 		901a8ba9512b17d0a0768bd1b46190d174306a8abdc18bee0c26c7faabedb4c8
V: 2457136 		903cfcce25738bba46ef604ca259cefcb1def11b597e72398c9eab80c1241222
V: 43--215 		904fec4e80d5b26cd240fa6b15e97a85b51a5b0a870e0c41bef5c96094538cb8
V: 6547213 		909229b0ebc5229752eb85ebc798a0e8cc7ea3290b4ddf79780ff7c99f69c8ca
V: 4357216 		9293b65dc235e57197d65ce3b335076e56fef526dfdcc3fc248d5de9f0d0401f
V: 2457136 		92c5e0c7a6dbfacc4394ad6d7b4f66ded6650855341543151d950b48211aa6dc
V: 7634215 		935d8a2b7ec6b8a950b1a7182d2323b39fea29838266b913448b8d29f5b3228d
V: 6513724 		9443767644f72a82f4db226296f8dee2f19c217966fe5725af69abd9f142087f
V: 1234567 		94d15349b0919e2123ef7e061f960acbc37b52ccb1235d988de540bc2d951c72
V: -23--14 		94d81ae26ad16c0d6f8b8dd8bfd390141b82a0d6257f37c78fd13b822d08d125
V: 1234125 		94fa882238a8e0910fe46fa6a34f87584ca1e609a46bb5eec4488306b58c01fc
V: 345-12- 		9550a4ad8b2397e1996acb1d4297c3d478d3c2ddfaed770c22a29cc8be4c9c68
V: 6325417 		9743b582292da3f9fc62114f25a7a4aab08f32bc0a2474044a860aaa1e98ab83
V: ---1234 		97d660b9f7cc6ac68c0553da003562aa8ba20697cc23c87fb0860d31ba213545
V: --21--3 		980fec0312bdff8fa07b55fbc01e08503d6eab6fecb0ff118e8f55d106210458
V: 3457126 		98fc77b05bdf91e58c891add779343e6738892ef9b4632d72eca221267f53b6c
V: 5237416 		99310fedd3b5a53ada652f0930714e76edf7c4523aca5261bd52e56aa953ed54
V: 6513624 		99be1bf40cd4ac5e51c5d6624b7ba0e14d8f71487ebdd2fbee5afce867233d61
V: 1-3-13- 		9c7dadac642efa11fc7c8902260333584af3d71cc5c92f15b880e19a50191960
V: 427-31- 		9da24f8fe382174f45dd9365f1200b8bcba2bdd3796d68e4ef2c9798b69af998
V: 2467135 		9def8b30a206140230101fb4dab38a70ca3e90a5a00ce6284fc5476ed2728b71
V: 1236345 		9e355a044dbdd9d721157d1aab03b1bc5f1ea51a44e1dd491a890fd7bca0d073
V: 1345132 		9e485d181f252e128e0a745041bb91964bb46cc5fdd573260741bc370b630baa
V: 3456127 		9e94015a12f8f5719aba1f6d62330d48870a29ac0d15dee30808e426fbac8faf
V: 3457216 		9ebeb6bdd3960c16291555e66ea0bfb9061dfbee0a72060da857203721425303
V: 7612763 		a048b500b2ef4064ff95255e755fa1c7b8d76a55a13cea0c3f533c9ebd6c4dd8
V: 2546137 		a0909eb63a5a8e0170ec85795c67c0485fe36ef148384172aad466b243ef06de
V: 7541632 		a16c7df4adf3e44fd50c70b83635bb670f5b7e7b72879f18e7d0a7cdab6f1489
V: 3225314 		a1c9eaa8fbad394172fff6c00d3c5e9141ba14e4b1f76032ffb68909c11ee17e
V: 425-31- 		a3b1a1f1ecdeebf527a9544340efe89a038f2a0d14ec7be18efd13cfa3992d17
V: 1257346 		a3bcfeb248f215d62b615e67e14513f8670adf28cc01ed51e30e39b2a072d2f8
V: 1235124 		a3bd7691337cf305150aded69cf3a35c6c416b7a830e313e419035aec1b57e69
V: 2457137 		a444054cb1e115a59fba8a3a758f8a6086ec77ee5da652c6b56a2921d783584f
V: 6237415 		a45d0031075bd6b922a7319cbf35b5f861146809bb7fe68ebb9b88b2beb586c1
V: 5134627 		a4b72edb7a1859149e716bd7c005b54eca6543efdb64b3ec5d3a8e8b4a1eeeea
V: 123---- 		a610ed80d8ae188c7613b076c99cbae87043019ca68e18f0cca9d5dc67e6c997
V: 1453267 		a79d8edc5c77b34bb640019c53d0024d97cfc31abab7272b90fb991d45603788
V: 234651- 		a82f1efaba1dd0a6d4b197b8a56bec9feedfa08e43f399610d61ba5b86aa6124
V: ---2-13 		a874029aeda9485f9ccd2be371f031ba453c3f7fdd05a843af2ef15b69ac7a3a
V: 5347216 		aa2334d88a1cd690beb3f1e147bfd96555b9b60306beff855dbb102ed65700c1
V: 5236714 		aa3636838b9a4f627d9a309c6ed628c4299b9cf4e05405ec144b6f59323d5a8f
V: 2467135 		ab29e2de14cc1d27cf338150d352c36d0ea87f9194d94f91329c1e37d78f319c
V: 4357216 		abfbf66bf70bc591d416924ea2163e1d9aac69d7ffaf378db76491a4d2c460df
V: 421653- 		ac320ad8f441982984accdb0ede52dc28837615ad7a106059619ae1115249423
V: 2547136 		ae56fc27e89f111275c4d71ed281e86085fea107d55f7746688d8e96aa021aee
V: 2457136 		aeab0a0e8a455ede6f85b7e365cd0adda05e5082216df703528cc3e34cc863a1
V: 3344125 		afea17ecf18a71a58f1c20baaf91707cb761f619689ae4d3b498ff38757dd450
V: 4375216 		b03980f086c0d45d81829e2f1800312cfb9845ff1b60c06c9996fa284776a840
V: 3457126 		b07cb71f9882294577b20eea6dd0dd0e10c9e2216071c456ad3b514d558dae1e
V: 4357216 		b11e61666abf90b4430b8e7bd3ae3b706efad68c81db3fd49ca118fc23dc6435
V: --23-14 		b2ae8ae0b05d5475b32ebdb077a849c6ebcb4b588f0db196025dbd98b1c8ed77
V: 7653214 		b2c3878e2d1cfd17afda8b7a16e0de623f40e490f7d2b5cfe0b7552c6a90fd1c
V: 5431627 		b38f7f6996b2667c0e80164318a002f04afa6589d208ef65cf9f79e84db2cb2c
V: 345-126 		b46760d9b4f1c02e0827d560ae784211751d01d20242652fbef20971683a029a
V: 3156427 		b470c6a32f7ff629597688b89b5c3575275c077788b976478b6e717db854521c
V: 5321764 		b4c580b9ec9ab4d0b9e9c035c57301603b239cf7adc6d4b38809e198a19ab0aa
V: 5436217 		b4d55508f9f5676dac2105622d71f3f964c20dbd21311fe663b245ccaea2ffea
V: 5237416 		b5cfc21cc6eb6d4369a6677fa162565d6f096b18958dd8fcb4fba4e2c16eb22d
V: 4527316 		b61ef8fbc17c8298507b758c12e952d18e8899c6f17bfe13c05326d3d46c81f9
V: 2457136 		b7189adbca64f2f1c380f7cf8a72f01d0591cc5521472379129e46526d7bc48d
V: 3214567 		b75d40a65877ea371ef9b7db996d7b262cadde1bdec46850d6ffc29e8ab5b0c7
V: 2335134 		b7af41a7abad8694c53706f0bd8926bdc39761333a82739ee23bb9da18f0cc82
V: 5436216 		b9392852d3c80ce598175386c6952932b073745e09d532515212e36ae9c29ea6
V: 5431762 		ba18accf6675ce4b4977293f866f6f13a74fe70f651017651de273c60588fd33
V: 4256317 		bbcf9c56dec30e63efeb6330ac9c139a6f3d4e56f3145321efebf5c5eb86dfc4
V: 435621- 		bc137e321dd4cc65cd1a7b65641bee1be364f73e5d5f6611d91acf1d34c3b695
V: 3457126 		bc2e233b1d11245f37337067daa3ab9baae06f5d3a32098ce5af959b0d6634fc
V: 1356247 		be8d50d4fb58561fab9bf6d58607d19d649fd6be2f3730198d83f32c2ef79df0
V: 4357216 		bebbd525183675829f93304fca9491c09e7240a8bb198d1248ae795235eb59df
V: 2457136 		beea084e37b09ae957703c5a56bb4c26abff5c67fc217b6cd51a19f7623185bf
V: 2457136 		bf07402b844db121003b225148332fb54553d4cf6c452851198269b51096ca20
V: 2777177 		bf292e7bb0356f3994c994f02ed39f6306266bcbc6c3131f1ca4ee4548c058f1
V: 7513624 		bf9cb0218bcd893624e735cb398c705eb2d460418d4332739fe3d91bb0e5deac
V: 345-126 		c00837f50d7ed576c312665abc6434b1757711ce40f0cbc1c4ff0907d64d5e2a
V: 6721777 		c10f6688684b4ae5460372587fdd7f8f635c34fc7eab65d61a5552f2c94cabcb
V: 1457263 		c13684b360444aa3265032ac9c28df6e2cb01c784d732a6f2a0373c9638e0d49
V: 5136724 		c24d2cd349e8eb9ca1aed984459ff11d6207a930d686e8b02a960b463bc0f0a5
V: 6237415 		c2ffb87ea766bad2f23217b5252f45a14844c17ce30a0a5ffd7399141fe93730
V: 1457136 		c36a320df18a9496b3fcff1a4a3554a93336362fcc59e5c577be3926948787bf
V: 123645- 		c39f4157ea10fdbdc3b3ed26d2a6968319051dad8fd0467fb98d56bc8e96d5b0
V: 2457136 		c545f6f08e00ba8424390f6e224ca897f53ca2ada6a59dc8267095232641fbbc
V: 2457136 		c7089102d370c40804d83a65b194c7caf8fdd5a27b54b2552be057e3427ae3a3
V: 2467135 		c783573b021342eb766d66c85167d2f18e0edb4aa1b7c797e67a8da458092345
V: 7651762 		c78bc83ea3a85ebfad38076fee2a2f2307ea9a951a73168479bb3807bfb9f1b2
V: 7631542 		c7bff441ce767f39c3060765c54dc59b42eed592b8df2252952f454035e00c11
V: 1346125 		c7de691df5b8559b817d1015c9e970c18ae52e74474242da16dc8683b1907504
V: 6327415 		c897b552d250937fbfb00d2b00b07c1336a7785f8ff9f636dc36c88bec3c190e
V: 5327416 		c8b341ba81e52ea035382b76d7be79aaefb9af9317fe7c7c2e7c3afcf378175f
V: 345-126 		c90ccfc4ba04904f0bb5efd80873ab82bfd1f4e19dd7ecd91d0630a90b97a6cc
V: ---1--2 		ca7b423924cf8f66f2fb9fa33875c0f89c5164c3b33297d7b3b41c6c1b20a351
V: 3456127 		cae67201269c876e9fdcd7d3dce2aa29bf7085c7ba1bc2eab5fa7f897b946a10
V: 425631- 		caefac3e7a7149a17131e68b03a22d913e1f2f3b7c9ef137e1e705dee64fb7fc
V: 4444123 		cb16e8013415912051cb9fa72e8e6f37c1db00bf8ba237b8abc195fd86e8c028
V: 6326415 		cb2462fd7a4cf091ac9511e30606df098d2ecdff993fdd8c450b105bf7259c5a
V: 3456127 		cd855adeaa00cfaec1af7eb1ad4506592ace9e3fdff64ccb22212821a80ccff7
V: 2---1-- 		cdc86875d3c5218019877174fc1dbd9661fa019570c15c6f7781b48440e4b32a
V: 5421--3 		ce887a1d236cf564d6fdc03ef23e1095e3ad6f50c8bf15b943b22e737ec61a69
V: 123-12- 		ce958298b4a545f2a4f18dbd2ffe424674a98d35baa648c110b6380dc3d2b57d
V: 4127635 		cee8687d6601e2b5a454879894eeab7b62ec78d52ff1a52b41f8626b83200af6
V: 4356217 		d117be06e88d21c5979626232a314e8cd38a0fbaa125f8d652db698b5076100f
V: 3457126 		d2ba1aae679721f5f76d09562d4d8cf3c2e2a18d0218e1a481e492bc5b4b75bb
V: 2457136 		d3ffc001ae051eb7483ab2c466b5ae5abee3ca4347407d46773f9987bd41ee58
V: 1357246 		d519d0b117983706ef9dc3dc25a56233303d88989f2c1a71295a2959210e73f3
V: 6437215 		d5db19f82b6575e790c3d59aaccecb28779594b4171a7c8215517cb9ed547325
V: 3476125 		d6e0e9bfcf0dfc814e3cb9057fb980bf394433223392173c3de5df92e6931c23
V: 3457126 		d7b56f866ecfa54f777ad865bcd4bd554f314eb55a1f26ba07f611a2b40c52ab
V: 5237416 		d7d75e29afc9bc9fbf4fea85d58ea25ccd2356247f269a638281cd409d876cbc
V: 345-126 		d981b7e3ef19642c0e9f708c709f49704797a856c913d094b5f46dbdb368d375
V: 7226415 		d982cd90bbd88930829d8fd85d7d84059fe6c8b52111be0397246085638a79e5
V: 4357216 		d9eb11f31dc70b266206531a75cc90a99d1633b61213bc780f9b1df637c8f0f3
V: 4356217 		dbcb0d6df858c9fa8b9fd6a6bce289d902d9a99404d5705bdadf60b9b08f0c2b
V: 2457136 		dce7981a9a410eaf360ad2a4d59ec43d1d1490d7ec7ae0888e41ed2e6031953e
V: 12--123 		dd0e095b5c14acc19db2352e4a8df2b5b7eb1a379f9e3beb295a3b1a9456cd1b
V: 7651432 		de7947107e398e22e6e50a6a0bb2718d62e09db8146f79d02682d662779a3ec9
V: 3355124 		dff0808689d304d1ff155ff902b9f6bd6cccdac982e6a620fd8bae1854a96acd
V: 2346115 		e04de0b9dbce4e1e3169ad70634304bc07c5db43b1130634daeb3e9b43298888
V: 2235114 		e101388d8e66a7448bdfa74cca6d8df5a55c254defffe3fb4f4516bcb3060407
V: 2457136 		e1a6d7815eabcb949ee41c84a47c70267cf4da4328c111f6008c515119ed4e66
V: 4257316 		e30fa1d3c9b381b218ac8b7c9c1421bce0d19e8dc50052fcbba76744bc29f6f0
V: 7641532 		e355948d7d8c022c49fe38a3299bf857a288c6bc028f92cca85b4f2ee5168ab1
V: 2457136 		e472d4f3ae900fa0d7129af9438d7e472fb5326167688b888218fffd4650f887
V: 1245123 		e49af886288acc60b090baa101486fd7cbb6234aa2e65642ded22f429c4c65b1
V: 1237665 		e6e767a43189704f3cfc176fb73f8db493fe23d2ca9b2c2d0daf1ef702b30b80
V: 7326415 		e72bdc6977b2e6cd6b2422365fcacf69e3d8289a720d39afc537c141e1e99c00
V: 1456253 		e85944c80dd67854bcf2935a1ab5e0465291d77f6805a3af36e6eb83b81e7f6d
V: 4357216 		e955c97c87f49b39f31f265857b0529715f54890cea3e9b52732cba029e95350
V: 4275316 		ea2e80e0bd6c9eff41ae28f49c399cdc440de7b84bd6515163c7f07ffa5149b0
V: --13-2- 		ea85cd53c81911b5d5ad138f2c6a180bb571fc816e4eea571b1017910592cfe6
V: 7642513 		ea9234550129fab0de49dd32862ab40c4e5c0218868cd004eafde30b559638b0
V: 6347125 		eb1c324e8ec6c44384a80b2f08f28f44fea7d3f22a221c5f868884fa661e9a2d
V: 3446125 		eb969800b6726af80f001965666d75fadb1c68279b927f18c8659f7a210c7e60
V: --1--23 		ec5a22a6a4c6032aab8e7119cda6068d91d3f03c997408f24de880361eb991d0
V: 5421763 		eca2a27bd8bd88d2721b50ef8b717fa9105cd96d26f1cfc8e840a558dd9fec7c
V: 1235134 		ed7e0d22c8cd15b4737bdf3c4121e0f379927683db9c9ce3c831beb57e7fe86c
V: 123-124 		f1782a7c383e228653a11a55e41f56440d79294b5142ba773cc58ce1366dceb9
V: 2235114 		f19177e2226ad24c15123b88df3d9c7ea21b69c4c45d12d66cf856638ec8a335
V: -314--2 		f301cb3f470afc2a8c378da8d9569db8865b9ced78ddf61dcb35f6b8e7e4f1fa
V: 2467135 		f3481d6f7feb46af28eea55dd9523cfe556f620f247486952b609813dee690b6
V: 4257316 		f41cc2035152106075a5f0534f5ab856a0ecf626ce1095ff1da896b3ddc4739c
V: 1236457 		f5ece2442f11afc697d359a6e532386225bc2bf5e9f408a572f2e356a1fd5768
V: 1235124 		f616ac80c635b16566a7ec150a42f6480b398e8444edb5f5c3ab1a7e139abf44
V: 6517423 		f6456bf30b1d7a460c28e3c798dc4dbbbbf95632e10aa37445d971e555d27cd8
V: 2456137 		f74c96b64791feb022e38f5b975f325ffed21405955748aa72b4fe25b4aa8481
V: 245-13- 		f83fc5cb510182cb890512f69f5a656bdc3310e1cdab19d9b76a06f6c719c110
V: 42--315 		f98cdf1bf96b30433c027f4bc3fa549724ec4b2b6547474693df4514fcc59f43
V: 3217546 		fba4cacb43b904b1f3ec9bf31de86fff6ee7a5c4ef5da83d71326028b9a068cf
V: -421--3 		fbaeb4486261e5f5cb325c3ee5d3877538cd7f1293d8e0ef4f64f8e0f5a606e5
V: 4441432 		fe7240b46e3bc8ec89a691ea9151a8afeb936698916f0e6cbdd44c56509a444f
